uP/uP_tb.vcd
$date
	Fri Nov 20 00:13:36 2020
$end
$version
	Icarus Verilog
$end
$timescale
	1ps
$end
$scope module testbench $end
$var wire 4 ! data_bus [3:0] $end
$var wire 1 " z_flag $end
$var wire 8 # program_byte [7:0] $end
$var wire 1 $ phase $end
$var wire 4 % oprnd [3:0] $end
$var wire 4 & instr [3:0] $end
$var wire 1 ' c_flag $end
$var wire 12 ( address_RAM [11:0] $end
$var wire 4 ) accu [3:0] $end
$var wire 12 * PC [11:0] $end
$var wire 4 + FF_out [3:0] $end
$var reg 1 , clock $end
$var reg 4 - pushbuttons [3:0] $end
$var reg 1 . reset $end
$var integer 32 / immediateDelay [31:0] $end
$var integer 32 0 jumpDelay [31:0] $end
$var integer 32 1 memoryDelay [31:0] $end
$var integer 32 2 nota [31:0] $end
$scope module uPmodule $end
$var wire 1 , clock $end
$var wire 4 3 data_bus [3:0] $end
$var wire 4 4 pushbuttons [3:0] $end
$var wire 1 . reset $end
$var wire 1 " z_flag $end
$var wire 8 5 program_byte [7:0] $end
$var wire 1 $ phase $end
$var wire 4 6 oprnd [3:0] $end
$var wire 4 7 instr [3:0] $end
$var wire 13 8 decode_O [12:0] $end
$var wire 7 9 decode_I [6:0] $end
$var wire 1 ' c_flag $end
$var wire 12 : address_RAM [11:0] $end
$var wire 4 ; accu [3:0] $end
$var wire 1 < Zero $end
$var wire 12 = PC [11:0] $end
$var wire 4 > FF_out [3:0] $end
$var wire 1 ? Carry $end
$var wire 4 @ ALU_Out [3:0] $end
$scope module acumul $end
$var wire 1 A EN $end
$var wire 1 , clk $end
$var wire 1 . reset $end
$var wire 4 B Q [3:0] $end
$var wire 4 C D [3:0] $end
$scope module a3 $end
$var wire 2 D D [1:0] $end
$var wire 1 A EN $end
$var wire 1 , clk $end
$var wire 1 . reset $end
$var wire 2 E Q [1:0] $end
$scope module a1 $end
$var wire 1 F D $end
$var wire 1 A EN $end
$var wire 1 , clk $end
$var wire 1 . reset $end
$var reg 1 G Q $end
$upscope $end
$scope module a2 $end
$var wire 1 H D $end
$var wire 1 A EN $end
$var wire 1 , clk $end
$var wire 1 . reset $end
$var reg 1 I Q $end
$upscope $end
$upscope $end
$scope module a4 $end
$var wire 2 J D [1:0] $end
$var wire 1 A EN $end
$var wire 1 , clk $end
$var wire 1 . reset $end
$var wire 2 K Q [1:0] $end
$scope module a1 $end
$var wire 1 L D $end
$var wire 1 A EN $end
$var wire 1 , clk $end
$var wire 1 . reset $end
$var reg 1 M Q $end
$upscope $end
$scope module a2 $end
$var wire 1 N D $end
$var wire 1 A EN $end
$var wire 1 , clk $end
$var wire 1 . reset $end
$var reg 1 O Q $end
$upscope $end
$upscope $end
$upscope $end
$scope module alu $end
$var wire 4 P B [3:0] $end
$var wire 3 Q S [2:0] $end
$var wire 4 R W [3:0] $end
$var reg 5 S A [4:0] $end
$var reg 1 ? C $end
$var reg 4 T O [3:0] $end
$var reg 1 < Z $end
$upscope $end
$scope module aluo $end
$var wire 4 U A [3:0] $end
$var wire 1 V EN $end
$var wire 4 W out [3:0] $end
$upscope $end
$scope module conta $end
$var wire 1 X EN $end
$var wire 12 Y LD [11:0] $end
$var wire 1 Z LDEN $end
$var wire 1 , clk $end
$var wire 1 . reset $end
$var reg 12 [ Q [11:0] $end
$upscope $end
$scope module deco $end
$var wire 7 \ A [6:0] $end
$var reg 13 ] Y [12:0] $end
$upscope $end
$scope module fetch $end
$var wire 1 ^ EN $end
$var wire 1 , clk $end
$var wire 1 . reset $end
$var wire 4 _ Q1 [3:0] $end
$var wire 4 ` Q [3:0] $end
$var wire 8 a D [7:0] $end
$scope module a1 $end
$var wire 4 b D [3:0] $end
$var wire 1 ^ EN $end
$var wire 1 , clk $end
$var wire 1 . reset $end
$var reg 4 c Q [3:0] $end
$upscope $end
$scope module a2 $end
$var wire 4 d D [3:0] $end
$var wire 1 ^ EN $end
$var wire 1 , clk $end
$var wire 1 . reset $end
$var reg 4 e Q [3:0] $end
$upscope $end
$upscope $end
$scope module fetcho $end
$var wire 4 f A [3:0] $end
$var wire 1 g EN $end
$var wire 4 h out [3:0] $end
$upscope $end
$scope module flags $end
$var wire 2 i D [1:0] $end
$var wire 1 j EN $end
$var wire 1 , clk $end
$var wire 1 . reset $end
$var wire 2 k Q [1:0] $end
$scope module a1 $end
$var wire 1 l D $end
$var wire 1 j EN $end
$var wire 1 , clk $end
$var wire 1 . reset $end
$var reg 1 m Q $end
$upscope $end
$scope module a2 $end
$var wire 1 n D $end
$var wire 1 j EN $end
$var wire 1 , clk $end
$var wire 1 . reset $end
$var reg 1 o Q $end
$upscope $end
$upscope $end
$scope module in $end
$var wire 4 p A [3:0] $end
$var wire 1 q EN $end
$var wire 4 r out [3:0] $end
$upscope $end
$scope module pha $end
$var wire 1 s D $end
$var wire 1 t EN $end
$var wire 1 , clk $end
$var wire 1 . reset $end
$var wire 1 $ Q1 $end
$scope module a1 $end
$var wire 1 s D $end
$var wire 1 t EN $end
$var wire 1 , clk $end
$var wire 1 . reset $end
$var reg 1 $ Q $end
$upscope $end
$upscope $end
$scope module ram $end
$var wire 12 u adr [11:0] $end
$var wire 1 v chips $end
$var wire 4 w data [3:0] $end
$var wire 1 x wrte $end
$var reg 4 y out [3:0] $end
$scope begin MEM_rd $end
$upscope $end
$scope begin MEM_write $end
$upscope $end
$upscope $end
$scope module rom $end
$var wire 12 z D [11:0] $end
$var wire 8 { Dout [7:0] $end
$upscope $end
$scope module sal $end
$var wire 4 | D [3:0] $end
$var wire 1 } EN $end
$var wire 1 , clk $end
$var wire 1 . reset $end
$var reg 4 ~ Q [3:0] $end
$upscope $end
$upscope $end
$upscope $end
$enddefinitions $end
#0
$dumpvars
bx ~
x}
bx |
bx {
bx z
bx y
xx
bx w
xv
bx u
1t
xs
bx r
xq
b110 p
xo
xn
xm
xl
bx k
xj
bx i
bx h
xg
bx f
bx e
bx d
bx c
bx b
bx a
bx `
bx _
x^
bx ]
bx \
bx [
xZ
bx Y
xX
bx W
xV
bx U
bx T
bx S
bx R
bx Q
bx P
xO
xN
xM
xL
bx K
bx J
xI
xH
xG
xF
bx E
bx D
bx C
bx B
xA
bx @
x?
bx >
bx =
x<
bx ;
bx :
bx 9
bx 8
bx 7
bx 6
bx 5
b110 4
bx 3
b0 2
b100010100 1
b1010010000 0
b10000 /
0.
b110 -
0,
bx +
bx *
bx )
bx (
x'
bx &
bx %
x$
bx #
x"
bx !
$end
#2
b0 !
b0 3
b0 P
b0 W
b0 h
b0 r
b0 w
b0 |
0L
0N
0F
0H
b0 J
b0 D
0l
0n
b0 @
b0 C
b0 T
b0 U
0<
b0 i
0?
b0 S
0}
0g
1V
0q
0x
0v
b0 Q
0A
0j
0Z
1X
1s
b1000000001000 8
b1000000001000 ]
1^
0"
0'
b1111 d
b100 b
b0 &
b0 7
b0 `
b0 c
b0 %
b0 6
b0 _
b0 e
b0 f
b0 9
b0 \
0$
0m
b0 k
0o
0G
b0 E
0I
0M
b0 )
b0 ;
b0 B
b0 R
b0 K
0O
b0 +
b0 >
b0 ~
b1001111 (
b1001111 :
b1001111 Y
b1001111 u
b1001111 #
b1001111 5
b1001111 a
b1001111 {
b0 *
b0 =
b0 [
b0 z
1.
#3
0.
#5
0s
0^
b1101 b
1$
b1111 %
b1111 6
b1111 _
b1111 e
b1111 f
b10100 9
b10100 \
b100 &
b100 7
b100 `
b100 c
b111111011111 (
b111111011111 :
b111111011111 Y
b111111011111 u
b11011111 #
b11011111 5
b11011111 a
b11011111 {
b1 *
b1 =
b1 [
b1 z
1,
#10
0,
#15
1s
1^
b1 d
b101 b
b100 9
b100 \
0$
b111101010001 (
b111101010001 :
b111101010001 Y
b111101010001 u
b1010001 #
b1010001 5
b1010001 a
b1010001 {
b10 *
b10 =
b10 [
b10 z
1,
#20
0,
#25
1L
1N
1F
1H
b11 J
b11 D
1n
b1111 @
b1111 C
b1111 T
b1111 U
1?
b11111 S
0l
b1 !
b1 3
b1 P
b1 W
b1 h
b1 r
b1 w
b1 |
b10 i
0<
1g
0V
b1 Q
1j
0X
0s
0^
b1001000010 8
b1001000010 ]
b0 d
b100 b
1$
b1 %
b1 6
b1 _
b1 e
b1 f
b10101 9
b10101 \
b101 &
b101 7
b101 `
b101 c
b101000000 (
b101000000 :
b101000000 Y
b101000000 u
b1000000 #
b1000000 5
b1000000 a
b1000000 {
b11 *
b11 =
b11 [
b11 z
1,
#30
0,
#35
0L
0N
0F
0H
b0 J
b0 D
0n
b0 !
b0 3
b0 P
b0 W
b0 h
b0 r
b0 w
b0 |
b0 @
b0 C
b0 T
b0 U
b0 i
0?
b0 S
0g
1V
b0 Q
0j
1X
1s
b1000000001000 8
b1000000001000 ]
1^
1'
b1000101 9
b1000101 \
0$
b10 k
1o
1,
#40
0,
#45
0s
0^
b1111 d
1$
b0 %
b0 6
b0 _
b0 e
b0 f
b1010100 9
b1010100 \
b100 &
b100 7
b100 `
b100 c
b1001111 (
b1001111 :
b1001111 Y
b1001111 u
b1001111 #
b1001111 5
b1001111 a
b1001111 {
b100 *
b100 =
b100 [
b100 z
1,
#50
0,
#55
1s
1^
b1010 d
b1010 b
b1000100 9
b1000100 \
0$
b10101010 (
b10101010 :
b10101010 Y
b10101010 u
b10101010 #
b10101010 5
b10101010 a
b10101010 {
b101 *
b101 =
b101 [
b101 z
1,
#60
0,
#65
0s
0^
b1000 d
b10 b
1$
b1010 %
b1010 6
b1010 _
b1010 e
b1010 f
b1011010 9
b1011010 \
b1010 &
b1010 7
b1010 `
b1010 c
b101000101000 (
b101000101000 :
b101000101000 Y
b101000101000 u
b101000 #
b101000 5
b101000 a
b101000 {
b110 *
b110 =
b110 [
b110 z
1,
#70
0,
#75
1s
1^
b1010 d
b100 b
b1001010 9
b1001010 \
0$
b101001001010 (
b101001001010 :
b101001001010 Y
b101001001010 u
b1001010 #
b1001010 5
b1001010 a
b1001010 {
b111 *
b111 =
b111 [
b111 z
1,
#80
0,
#85
0s
0^
b1100 d
b10 b
1$
b1010100 9
b1010100 \
b100 &
b100 7
b100 `
b100 c
b101000101100 (
b101000101100 :
b101000101100 Y
b101000101100 u
b101100 #
b101100 5
b101100 a
b101100 {
b1000 *
b1000 =
b1000 [
b1000 z
1,
#90
0,
#95
1s
1^
b1 d
b1010 b
b1000100 9
b1000100 \
0$
b101010100001 (
b101010100001 :
b101010100001 Y
b101010100001 u
b10100001 #
b10100001 5
b10100001 a
b10100001 {
b1001 *
b1001 =
b1001 [
b1001 z
1,
#100
0,
#105
0s
0^
b1011 d
b1110 b
1$
b1 %
b1 6
b1 _
b1 e
b1 f
b1011010 9
b1011010 \
b1010 &
b1010 7
b1010 `
b1010 c
b111101011 (
b111101011 :
b111101011 Y
b111101011 u
b11101011 #
b11101011 5
b11101011 a
b11101011 {
b1010 *
b1010 =
b1010 [
b1010 z
1,
#110
0,
#115
1s
1^
b0 d
b1101 b
b1001010 9
b1001010 \
0$
b111010000 (
b111010000 :
b111010000 Y
b111010000 u
b11010000 #
b11010000 5
b11010000 a
b11010000 {
b1011 *
b1011 =
b1011 [
b1011 z
1,
#120
0,
#125
xL
xN
xF
xH
bx J
bx D
xn
bx @
bx C
bx T
bx U
x?
bx S
xl
bx !
bx 3
bx P
bx W
bx h
bx r
bx w
bx |
bx i
x<
0V
1v
b11 Q
1A
1j
0s
0^
b1011011100000 8
b1011011100000 ]
b101 b
1$
b0 %
b0 6
b0 _
b0 e
b0 f
b1011101 9
b1011101 \
b1101 &
b1101 7
b1101 `
b1101 c
b1010000 (
b1010000 :
b1010000 Y
b1010000 u
b1010000 #
b1010000 5
b1010000 a
b1010000 {
b1100 *
b1100 =
b1100 [
b1100 z
1,
#130
0,
#135
0l
0n
0<
b0 i
0?
1V
0v
b0 Q
0A
0j
1s
b1000000001000 8
b1000000001000 ]
1^
x"
x'
b0xxxx S
b111 b
bx01101 9
bx01101 \
0$
xm
bx k
xo
xG
bx E
xI
xM
bx )
bx ;
bx B
bx R
bx K
xO
b1110000 (
b1110000 :
b1110000 Y
b1110000 u
b1110000 #
b1110000 5
b1110000 a
b1110000 {
b1101 *
b1101 =
b1101 [
b1101 z
1,
#140
0,
#145
xl
xn
b0 !
b0 3
b0 P
b0 W
b0 h
b0 r
b0 w
b0 |
x<
bx i
x?
bx S
1g
0V
b1 Q
1j
0X
0s
0^
b1001000010 8
b1001000010 ]
b0 b
1$
bx10111 9
bx10111 \
b111 &
b111 7
b111 `
b111 c
b0 (
b0 :
b0 Y
b0 u
b0 #
b0 5
b0 a
b0 {
b1110 *
b1110 =
b1110 [
b1110 z
1,
#150
0,
#155
b1111 d
b100 b
b1001111 (
b1001111 :
b1001111 Y
b1001111 u
b1001111 #
b1001111 5
b1001111 a
b1001111 {
b0 *
b0 =
b0 [
b0 z
0l
0n
bx !
bx 3
bx P
bx W
bx h
bx r
bx w
bx |
0<
b0 i
0?
b0xxxx S
0g
1V
b0 Q
0j
1Z
1s
b100000001000 8
b100000001000 ]
1^
bx00111 9
bx00111 \
0$
1,
#160
0,
#165
0Z
1X
0s
0^
b1000000001000 8
b1000000001000 ]
bx d
bx b
1$
b1111 %
b1111 6
b1111 _
b1111 e
b1111 f
bx10100 9
bx10100 \
b100 &
b100 7
b100 `
b100 c
b1111xxxxxxxx (
b1111xxxxxxxx :
b1111xxxxxxxx Y
b1111xxxxxxxx u
bx #
bx 5
bx a
bx {
b1001111 *
b1001111 =
b1001111 [
b1001111 z
1,
#170
0,
#175
1s
1^
b1111 d
b100 b
bx00100 9
bx00100 \
0$
b111101001111 (
b111101001111 :
b111101001111 Y
b111101001111 u
b1001111 #
b1001111 5
b1001111 a
b1001111 {
b1010000 *
b1010000 =
b1010000 [
b1010000 z
1,
#180
0,
#185
0s
0^
b1 d
b1010 b
bx10100 9
bx10100 \
1$
b111110100001 (
b111110100001 :
b111110100001 Y
b111110100001 u
b10100001 #
b10100001 5
b10100001 a
b10100001 {
b1010001 *
b1010001 =
b1010001 [
b1010001 z
1,
#190
0,
#195
1s
1^
b1111 d
b1000 b
bx00100 9
bx00100 \
0$
b111110001111 (
b111110001111 :
b111110001111 Y
b111110001111 u
b10001111 #
b10001111 5
b10001111 a
b10001111 {
b1010010 *
b1010010 =
b1010010 [
b1010010 z
1,
#200
0,
#205
0s
0^
b1001 d
b100 b
1$
bx11000 9
bx11000 \
b1000 &
b1000 7
b1000 `
b1000 c
b111101001001 (
b111101001001 :
b111101001001 Y
b111101001001 u
b1001001 #
b1001001 5
b1001001 a
b1001001 {
b1010011 *
b1010011 =
b1010011 [
b1010011 z
1,
#210
0,
#215
1s
1^
bx d
bx b
bx01000 9
bx01000 \
0$
b1111xxxxxxxx (
b1111xxxxxxxx :
b1111xxxxxxxx Y
b1111xxxxxxxx u
bx #
bx 5
bx a
bx {
b1010100 *
b1010100 =
b1010100 [
b1010100 z
1,
#220
0,
#225
0s
0^
1$
bx (
bx :
bx Y
bx u
bx %
bx 6
bx _
bx e
bx f
bx1xxxx 9
bx1xxxx \
bx &
bx 7
bx `
bx c
b1010101 *
b1010101 =
b1010101 [
b1010101 z
1,
#230
0,
#235
1s
1^
bx0xxxx 9
bx0xxxx \
0$
b1010110 *
b1010110 =
b1010110 [
b1010110 z
1,
#236
b1110 -
b1110 4
b1110 p
#240
0,
#245
0s
0^
bx1xxxx 9
bx1xxxx \
1$
b1010111 *
b1010111 =
b1010111 [
b1010111 z
1,
#250
0,
#255
1s
1^
bx0xxxx 9
bx0xxxx \
0$
b1011000 *
b1011000 =
b1011000 [
b1011000 z
1,
#260
0,
#265
0s
0^
bx1xxxx 9
bx1xxxx \
1$
b1011001 *
b1011001 =
b1011001 [
b1011001 z
1,
#270
0,
#275
1s
1^
bx0xxxx 9
bx0xxxx \
0$
b1011010 *
b1011010 =
b1011010 [
b1011010 z
1,
#280
0,
#285
0s
0^
bx1xxxx 9
bx1xxxx \
1$
b1011011 *
b1011011 =
b1011011 [
b1011011 z
1,
#290
0,
#295
1s
1^
bx0xxxx 9
bx0xxxx \
0$
b1011100 *
b1011100 =
b1011100 [
b1011100 z
1,
#300
0,
#305
0s
0^
bx1xxxx 9
bx1xxxx \
1$
b1011101 *
b1011101 =
b1011101 [
b1011101 z
1,
#310
0,
#315
1s
1^
bx0xxxx 9
bx0xxxx \
0$
b1011110 *
b1011110 =
b1011110 [
b1011110 z
1,
#320
0,
#325
0s
0^
bx1xxxx 9
bx1xxxx \
1$
b1011111 *
b1011111 =
b1011111 [
b1011111 z
1,
#330
0,
#335
1s
1^
bx0xxxx 9
bx0xxxx \
0$
b1100000 *
b1100000 =
b1100000 [
b1100000 z
1,
#340
0,
#345
0s
0^
bx1xxxx 9
bx1xxxx \
1$
b1100001 *
b1100001 =
b1100001 [
b1100001 z
1,
#350
0,
#355
1s
1^
bx0xxxx 9
bx0xxxx \
0$
b1100010 *
b1100010 =
b1100010 [
b1100010 z
1,
#360
0,
#365
0s
0^
bx1xxxx 9
bx1xxxx \
1$
b1100011 *
b1100011 =
b1100011 [
b1100011 z
1,
#370
0,
#375
1s
1^
bx0xxxx 9
bx0xxxx \
0$
b1100100 *
b1100100 =
b1100100 [
b1100100 z
1,
#380
0,
#385
0s
0^
bx1xxxx 9
bx1xxxx \
1$
b1100101 *
b1100101 =
b1100101 [
b1100101 z
1,
#390
0,
#395
1s
1^
bx0xxxx 9
bx0xxxx \
0$
b1100110 *
b1100110 =
b1100110 [
b1100110 z
1,
#400
0,
#405
0s
0^
bx1xxxx 9
bx1xxxx \
1$
b1100111 *
b1100111 =
b1100111 [
b1100111 z
1,
#410
0,
#415
1s
1^
bx0xxxx 9
bx0xxxx \
0$
b1101000 *
b1101000 =
b1101000 [
b1101000 z
1,
#420
0,
#425
0s
0^
bx1xxxx 9
bx1xxxx \
1$
b1101001 *
b1101001 =
b1101001 [
b1101001 z
1,
#430
0,
#435
1s
1^
bx0xxxx 9
bx0xxxx \
0$
b1101010 *
b1101010 =
b1101010 [
b1101010 z
1,
#440
0,
#445
0s
0^
bx1xxxx 9
bx1xxxx \
1$
b1101011 *
b1101011 =
b1101011 [
b1101011 z
1,
#450
0,
#455
1s
1^
bx0xxxx 9
bx0xxxx \
0$
b1101100 *
b1101100 =
b1101100 [
b1101100 z
1,
#460
0,
#465
0s
0^
bx1xxxx 9
bx1xxxx \
1$
b1101101 *
b1101101 =
b1101101 [
b1101101 z
1,
#470
0,
#475
1s
1^
bx0xxxx 9
bx0xxxx \
0$
b1101110 *
b1101110 =
b1101110 [
b1101110 z
1,
#480
0,
#485
0s
0^
bx1xxxx 9
bx1xxxx \
1$
b1101111 *
b1101111 =
b1101111 [
b1101111 z
1,
#490
0,
#495
1s
1^
bx0xxxx 9
bx0xxxx \
0$
b1110000 *
b1110000 =
b1110000 [
b1110000 z
1,
#500
0,
#505
0s
0^
bx1xxxx 9
bx1xxxx \
1$
b1110001 *
b1110001 =
b1110001 [
b1110001 z
1,
#510
0,
#515
1s
1^
bx0xxxx 9
bx0xxxx \
0$
b1110010 *
b1110010 =
b1110010 [
b1110010 z
1,
#520
0,
#525
0s
0^
bx1xxxx 9
bx1xxxx \
1$
b1110011 *
b1110011 =
b1110011 [
b1110011 z
1,
#530
0,
#535
1s
1^
bx0xxxx 9
bx0xxxx \
0$
b1110100 *
b1110100 =
b1110100 [
b1110100 z
1,
#540
0,
#545
0s
0^
bx1xxxx 9
bx1xxxx \
1$
b1110101 *
b1110101 =
b1110101 [
b1110101 z
1,
#550
0,
#555
1s
1^
bx0xxxx 9
bx0xxxx \
0$
b1110110 *
b1110110 =
b1110110 [
b1110110 z
1,
#560
0,
#565
0s
0^
bx1xxxx 9
bx1xxxx \
1$
b1110111 *
b1110111 =
b1110111 [
b1110111 z
1,
#570
0,
#575
1s
1^
bx0xxxx 9
bx0xxxx \
0$
b1111000 *
b1111000 =
b1111000 [
b1111000 z
1,
#580
0,
#585
0s
0^
bx1xxxx 9
bx1xxxx \
1$
b1111001 *
b1111001 =
b1111001 [
b1111001 z
1,
#590
0,
#595
1s
1^
bx0xxxx 9
bx0xxxx \
0$
b1111010 *
b1111010 =
b1111010 [
b1111010 z
1,
#600
0,
#605
0s
0^
bx1xxxx 9
bx1xxxx \
1$
b1111011 *
b1111011 =
b1111011 [
b1111011 z
1,
#610
0,
#615
1s
1^
bx0xxxx 9
bx0xxxx \
0$
b1111100 *
b1111100 =
b1111100 [
b1111100 z
1,
#620
0,
#625
0s
0^
bx1xxxx 9
bx1xxxx \
1$
b1111101 *
b1111101 =
b1111101 [
b1111101 z
1,
#630
0,
#635
1s
1^
bx0xxxx 9
bx0xxxx \
0$
b1111110 *
b1111110 =
b1111110 [
b1111110 z
1,
#640
0,
#645
0s
0^
bx1xxxx 9
bx1xxxx \
1$
b1111111 *
b1111111 =
b1111111 [
b1111111 z
1,
#650
0,
#655
1s
1^
bx0xxxx 9
bx0xxxx \
0$
b10000000 *
b10000000 =
b10000000 [
b10000000 z
1,
#660
0,
#665
0s
0^
bx1xxxx 9
bx1xxxx \
1$
b10000001 *
b10000001 =
b10000001 [
b10000001 z
1,
#670
0,
#675
1s
1^
bx0xxxx 9
bx0xxxx \
0$
b10000010 *
b10000010 =
b10000010 [
b10000010 z
1,
#680
0,
#685
0s
0^
bx1xxxx 9
bx1xxxx \
1$
b10000011 *
b10000011 =
b10000011 [
b10000011 z
1,
#690
0,
#695
1s
1^
bx0xxxx 9
bx0xxxx \
0$
b10000100 *
b10000100 =
b10000100 [
b10000100 z
1,
#700
0,
#705
0s
0^
bx1xxxx 9
bx1xxxx \
1$
b10000101 *
b10000101 =
b10000101 [
b10000101 z
1,
#710
0,
#715
1s
1^
bx0xxxx 9
bx0xxxx \
0$
b10000110 *
b10000110 =
b10000110 [
b10000110 z
1,
#720
0,
#725
0s
0^
bx1xxxx 9
bx1xxxx \
1$
b10000111 *
b10000111 =
b10000111 [
b10000111 z
1,
#730
0,
#735
1s
1^
bx0xxxx 9
bx0xxxx \
0$
b10001000 *
b10001000 =
b10001000 [
b10001000 z
1,
#740
0,
#745
0s
0^
bx1xxxx 9
bx1xxxx \
1$
b10001001 *
b10001001 =
b10001001 [
b10001001 z
1,
#750
0,
#755
1s
1^
bx0xxxx 9
bx0xxxx \
0$
b10001010 *
b10001010 =
b10001010 [
b10001010 z
1,
#760
0,
#765
0s
0^
bx1xxxx 9
bx1xxxx \
1$
b10001011 *
b10001011 =
b10001011 [
b10001011 z
1,
#770
0,
#775
1s
1^
bx0xxxx 9
bx0xxxx \
0$
b10001100 *
b10001100 =
b10001100 [
b10001100 z
1,
#780
0,
#785
0s
0^
bx1xxxx 9
bx1xxxx \
1$
b10001101 *
b10001101 =
b10001101 [
b10001101 z
1,
#790
0,
#795
1s
1^
bx0xxxx 9
bx0xxxx \
0$
b10001110 *
b10001110 =
b10001110 [
b10001110 z
1,
#800
0,
#805
0s
0^
bx1xxxx 9
bx1xxxx \
1$
b10001111 *
b10001111 =
b10001111 [
b10001111 z
1,
#810
0,
#815
1s
1^
bx0xxxx 9
bx0xxxx \
0$
b10010000 *
b10010000 =
b10010000 [
b10010000 z
1,
#820
0,
#825
0s
0^
bx1xxxx 9
bx1xxxx \
1$
b10010001 *
b10010001 =
b10010001 [
b10010001 z
1,
#830
0,
#835
1s
1^
bx0xxxx 9
bx0xxxx \
0$
b10010010 *
b10010010 =
b10010010 [
b10010010 z
1,
#840
0,
#845
0s
0^
bx1xxxx 9
bx1xxxx \
1$
b10010011 *
b10010011 =
b10010011 [
b10010011 z
1,
#850
0,
#855
1s
1^
bx0xxxx 9
bx0xxxx \
0$
b10010100 *
b10010100 =
b10010100 [
b10010100 z
1,
#860
0,
#865
0s
0^
bx1xxxx 9
bx1xxxx \
1$
b10010101 *
b10010101 =
b10010101 [
b10010101 z
1,
#870
0,
#875
1s
1^
bx0xxxx 9
bx0xxxx \
0$
b10010110 *
b10010110 =
b10010110 [
b10010110 z
1,
#880
0,
#885
0s
0^
bx1xxxx 9
bx1xxxx \
1$
b10010111 *
b10010111 =
b10010111 [
b10010111 z
1,
#890
0,
#895
1s
1^
bx0xxxx 9
bx0xxxx \
0$
b10011000 *
b10011000 =
b10011000 [
b10011000 z
1,
#900
0,
#905
0s
0^
bx1xxxx 9
bx1xxxx \
1$
b10011001 *
b10011001 =
b10011001 [
b10011001 z
1,
#910
0,
#915
1s
1^
bx0xxxx 9
bx0xxxx \
0$
b10011010 *
b10011010 =
b10011010 [
b10011010 z
1,
#920
0,
#925
0s
0^
bx1xxxx 9
bx1xxxx \
1$
b10011011 *
b10011011 =
b10011011 [
b10011011 z
1,
#930
0,
#935
1s
1^
bx0xxxx 9
bx0xxxx \
0$
b10011100 *
b10011100 =
b10011100 [
b10011100 z
1,
#940
0,
#945
0s
0^
bx1xxxx 9
bx1xxxx \
1$
b10011101 *
b10011101 =
b10011101 [
b10011101 z
1,
#950
0,
#955
1s
1^
bx0xxxx 9
bx0xxxx \
0$
b10011110 *
b10011110 =
b10011110 [
b10011110 z
1,
#960
0,
#965
0s
0^
bx1xxxx 9
bx1xxxx \
1$
b10011111 *
b10011111 =
b10011111 [
b10011111 z
1,
#970
0,
#975
1s
1^
bx0xxxx 9
bx0xxxx \
0$
b10100000 *
b10100000 =
b10100000 [
b10100000 z
1,
#980
0,
#985
0s
0^
bx1xxxx 9
bx1xxxx \
1$
b10100001 *
b10100001 =
b10100001 [
b10100001 z
1,
#990
0,
#995
1s
1^
bx0xxxx 9
bx0xxxx \
0$
b10100010 *
b10100010 =
b10100010 [
b10100010 z
1,
