uP/uP_tb.vcd
$date
	Fri Nov 20 00:54:32 2020
$end
$version
	Icarus Verilog
$end
$timescale
	1ps
$end
$scope module testbench $end
$var wire 4 ! data_bus [3:0] $end
$var wire 1 " z_flag $end
$var wire 8 # program_byte [7:0] $end
$var wire 1 $ phase $end
$var wire 4 % oprnd [3:0] $end
$var wire 4 & instr [3:0] $end
$var wire 1 ' c_flag $end
$var wire 12 ( address_RAM [11:0] $end
$var wire 4 ) accu [3:0] $end
$var wire 12 * PC [11:0] $end
$var wire 4 + FF_out [3:0] $end
$var reg 1 , clock $end
$var reg 4 - pushbuttons [3:0] $end
$var reg 1 . reset $end
$var integer 32 / immediateDelay [31:0] $end
$var integer 32 0 jumpDelay [31:0] $end
$var integer 32 1 memoryDelay [31:0] $end
$var integer 32 2 nota [31:0] $end
$scope module uPmodule $end
$var wire 1 , clock $end
$var wire 4 3 data_bus [3:0] $end
$var wire 4 4 pushbuttons [3:0] $end
$var wire 1 . reset $end
$var wire 1 " z_flag $end
$var wire 8 5 program_byte [7:0] $end
$var wire 1 $ phase $end
$var wire 4 6 oprnd [3:0] $end
$var wire 4 7 instr [3:0] $end
$var wire 13 8 decode_O [12:0] $end
$var wire 7 9 decode_I [6:0] $end
$var wire 1 ' c_flag $end
$var wire 12 : address_RAM [11:0] $end
$var wire 4 ; accu [3:0] $end
$var wire 1 < Zero $end
$var wire 12 = PC [11:0] $end
$var wire 4 > FF_out [3:0] $end
$var wire 1 ? Carry $end
$var wire 4 @ ALU_Out [3:0] $end
$scope module acumul $end
$var wire 1 A EN $end
$var wire 1 , clk $end
$var wire 1 . reset $end
$var wire 4 B Q [3:0] $end
$var wire 4 C D [3:0] $end
$scope module a3 $end
$var wire 2 D D [1:0] $end
$var wire 1 A EN $end
$var wire 1 , clk $end
$var wire 1 . reset $end
$var wire 2 E Q [1:0] $end
$scope module a1 $end
$var wire 1 F D $end
$var wire 1 A EN $end
$var wire 1 , clk $end
$var wire 1 . reset $end
$var reg 1 G Q $end
$upscope $end
$scope module a2 $end
$var wire 1 H D $end
$var wire 1 A EN $end
$var wire 1 , clk $end
$var wire 1 . reset $end
$var reg 1 I Q $end
$upscope $end
$upscope $end
$scope module a4 $end
$var wire 2 J D [1:0] $end
$var wire 1 A EN $end
$var wire 1 , clk $end
$var wire 1 . reset $end
$var wire 2 K Q [1:0] $end
$scope module a1 $end
$var wire 1 L D $end
$var wire 1 A EN $end
$var wire 1 , clk $end
$var wire 1 . reset $end
$var reg 1 M Q $end
$upscope $end
$scope module a2 $end
$var wire 1 N D $end
$var wire 1 A EN $end
$var wire 1 , clk $end
$var wire 1 . reset $end
$var reg 1 O Q $end
$upscope $end
$upscope $end
$upscope $end
$scope module alu $end
$var wire 4 P B [3:0] $end
$var wire 3 Q S [2:0] $end
$var wire 4 R W [3:0] $end
$var reg 5 S A [4:0] $end
$var reg 1 ? C $end
$var reg 4 T O [3:0] $end
$var reg 1 < Z $end
$upscope $end
$scope module aluo $end
$var wire 4 U A [3:0] $end
$var wire 1 V EN $end
$var wire 4 W out [3:0] $end
$upscope $end
$scope module conta $end
$var wire 1 X EN $end
$var wire 12 Y LD [11:0] $end
$var wire 1 Z LDEN $end
$var wire 1 , clk $end
$var wire 1 . reset $end
$var reg 12 [ Q [11:0] $end
$upscope $end
$scope module deco $end
$var wire 7 \ A [6:0] $end
$var reg 13 ] Y [12:0] $end
$upscope $end
$scope module fetch $end
$var wire 1 ^ EN $end
$var wire 1 , clk $end
$var wire 1 . reset $end
$var wire 4 _ Q1 [3:0] $end
$var wire 4 ` Q [3:0] $end
$var wire 8 a D [7:0] $end
$scope module a1 $end
$var wire 4 b D [3:0] $end
$var wire 1 ^ EN $end
$var wire 1 , clk $end
$var wire 1 . reset $end
$var reg 4 c Q [3:0] $end
$upscope $end
$scope module a2 $end
$var wire 4 d D [3:0] $end
$var wire 1 ^ EN $end
$var wire 1 , clk $end
$var wire 1 . reset $end
$var reg 4 e Q [3:0] $end
$upscope $end
$upscope $end
$scope module fetcho $end
$var wire 4 f A [3:0] $end
$var wire 1 g EN $end
$var wire 4 h out [3:0] $end
$upscope $end
$scope module flags $end
$var wire 2 i D [1:0] $end
$var wire 1 j EN $end
$var wire 1 , clk $end
$var wire 1 . reset $end
$var wire 2 k Q [1:0] $end
$scope module a1 $end
$var wire 1 l D $end
$var wire 1 j EN $end
$var wire 1 , clk $end
$var wire 1 . reset $end
$var reg 1 m Q $end
$upscope $end
$scope module a2 $end
$var wire 1 n D $end
$var wire 1 j EN $end
$var wire 1 , clk $end
$var wire 1 . reset $end
$var reg 1 o Q $end
$upscope $end
$upscope $end
$scope module in $end
$var wire 4 p A [3:0] $end
$var wire 1 q EN $end
$var wire 4 r out [3:0] $end
$upscope $end
$scope module pha $end
$var wire 1 s D $end
$var wire 1 t EN $end
$var wire 1 , clk $end
$var wire 1 . reset $end
$var wire 1 $ Q1 $end
$scope module a1 $end
$var wire 1 s D $end
$var wire 1 t EN $end
$var wire 1 , clk $end
$var wire 1 . reset $end
$var reg 1 $ Q $end
$upscope $end
$upscope $end
$scope module ram $end
$var wire 12 u adr [11:0] $end
$var wire 1 v chips $end
$var wire 4 w data [3:0] $end
$var wire 1 x wrte $end
$var reg 4 y out [3:0] $end
$scope begin MEM_rd $end
$upscope $end
$scope begin MEM_write $end
$upscope $end
$upscope $end
$scope module rom $end
$var wire 12 z D [11:0] $end
$var wire 8 { Dout [7:0] $end
$upscope $end
$scope module sal $end
$var wire 4 | D [3:0] $end
$var wire 1 } EN $end
$var wire 1 , clk $end
$var wire 1 . reset $end
$var reg 4 ~ Q [3:0] $end
$upscope $end
$upscope $end
$upscope $end
$enddefinitions $end
#0
$dumpvars
bx ~
x}
bx |
bx {
bx z
bx y
xx
bx w
xv
bx u
1t
xs
bx r
xq
b110 p
xo
xn
xm
xl
bx k
xj
bx i
bx h
xg
bx f
bx e
bx d
bx c
bx b
bx a
bx `
bx _
x^
bx ]
bx \
bx [
xZ
bx Y
xX
bx W
xV
bx U
bx T
bx S
bx R
bx Q
bx P
xO
xN
xM
xL
bx K
bx J
xI
xH
xG
xF
bx E
bx D
bx C
bx B
xA
bx @
x?
bx >
bx =
x<
bx ;
bx :
bx 9
bx 8
bx 7
bx 6
bx 5
b110 4
bx 3
b0 2
b100010100 1
b1010010000 0
b10000 /
0.
b110 -
0,
bx +
bx *
bx )
bx (
x'
bx &
bx %
x$
bx #
x"
bx !
$end
#2
b0 !
b0 3
b0 P
b0 W
b0 h
b0 r
b0 w
b0 |
0L
0N
0F
0H
b0 J
b0 D
0l
0n
b0 @
b0 C
b0 T
b0 U
0<
b0 i
0?
b0 S
0}
0g
1V
0q
0x
0v
b0 Q
0A
0j
0Z
1X
1s
b1000000001000 8
b1000000001000 ]
1^
0"
0'
b1111 d
b100 b
b0 &
b0 7
b0 `
b0 c
b0 %
b0 6
b0 _
b0 e
b0 f
b0 9
b0 \
0$
0m
b0 k
0o
0G
b0 E
0I
0M
b0 )
b0 ;
b0 B
b0 R
b0 K
0O
b0 +
b0 >
b0 ~
b1001111 (
b1001111 :
b1001111 Y
b1001111 u
b1001111 #
b1001111 5
b1001111 a
b1001111 {
b0 *
b0 =
b0 [
b0 z
1.
#3
0.
#5
1L
1N
1F
1H
b11 J
b11 D
b1111 @
b1111 C
b1111 T
b1111 U
b1111 S
b1111 !
b1111 3
b1111 P
b1111 W
b1111 h
b1111 r
b1111 w
b1111 |
1g
0V
b10 Q
1A
1j
0X
0s
0^
b11010000010 8
b11010000010 ]
b1101 b
1$
b1111 %
b1111 6
b1111 _
b1111 e
b1111 f
b100001 9
b100001 \
b100 &
b100 7
b100 `
b100 c
b111111011111 (
b111111011111 :
b111111011111 Y
b111111011111 u
b11011111 #
b11011111 5
b11011111 a
b11011111 {
b1 *
b1 =
b1 [
b1 z
1,
#10
0,
#15
0g
1V
b0 Q
0A
0j
1X
1s
b1000000001000 8
b1000000001000 ]
1^
b1111 S
b100000 9
b100000 \
0$
1G
b11 E
1I
1M
b1111 )
b1111 ;
b1111 B
b1111 R
b11 K
1O
1,
#16
b1000110 2
#20
0,
#25
1}
0X
0s
0^
b1001 8
b1001 ]
b1 d
b101 b
1$
b1101001 9
b1101001 \
b1101 &
b1101 7
b1101 `
b1101 c
b111101010001 (
b111101010001 :
b111101010001 Y
b111101010001 u
b1010001 #
b1010001 5
b1010001 a
b1010001 {
b10 *
b10 =
b10 [
b10 z
1,
#30
0,
#35
0}
1X
1s
b1000000001000 8
b1000000001000 ]
1^
b1101000 9
b1101000 \
0$
b1111 +
b1111 >
b1111 ~
1,
#36
b1100111 2
#40
0,
#45
0N
0F
b1 J
b10 D
b110 @
b110 C
b110 T
b110 U
b110 !
b110 3
b110 P
b110 W
b110 h
b110 r
b110 w
b110 |
b110 S
0V
1q
b10 Q
1A
1j
0X
0s
0^
b11010000100 8
b11010000100 ]
b0 d
b100 b
1$
b1 %
b1 6
b1 _
b1 e
b1 f
b101001 9
b101001 \
b101 &
b101 7
b101 `
b101 c
b101000000 (
b101000000 :
b101000000 Y
b101000000 u
b1000000 #
b1000000 5
b1000000 a
b1000000 {
b11 *
b11 =
b11 [
b11 z
1,
#50
0,
#55
b110 !
b110 3
b110 P
b110 W
b110 h
b110 r
b110 w
b110 |
1V
0q
b0 Q
0A
0j
1X
1s
b1000000001000 8
b1000000001000 ]
1^
b110 S
b101000 9
b101000 \
0$
b10 E
0G
b110 )
b110 ;
b110 B
b110 R
b1 K
0O
1,
#56
b10001000 2
#60
0,
#65
0L
0H
b0 J
b0 D
b0 @
b0 C
b0 T
b0 U
b0 !
b0 3
b0 P
b0 W
b0 h
b0 r
b0 w
b0 |
b0 S
1g
0V
b10 Q
1A
1j
0X
0s
0^
b11010000010 8
b11010000010 ]
b1111 d
1$
b0 %
b0 6
b0 _
b0 e
b0 f
b100001 9
b100001 \
b100 &
b100 7
b100 `
b100 c
b1001111 (
b1001111 :
b1001111 Y
b1001111 u
b1001111 #
b1001111 5
b1001111 a
b1001111 {
b100 *
b100 =
b100 [
b100 z
1,
#70
0,
#75
0g
1V
b0 Q
0A
0j
1X
1s
b1000000001000 8
b1000000001000 ]
1^
b100000 9
b100000 \
0$
b0 E
0I
b0 )
b0 ;
b0 B
b0 R
b0 K
0M
1,
#80
0,
#85
1L
1N
1F
1H
b11 J
b11 D
b1111 @
b1111 C
b1111 T
b1111 U
b1111 S
b1111 !
b1111 3
b1111 P
b1111 W
b1111 h
b1111 r
b1111 w
b1111 |
1g
0V
b10 Q
1A
1j
0X
0s
b11010000010 8
b11010000010 ]
0^
b1010 d
b1010 b
b100001 9
b100001 \
1$
b1111 %
b1111 6
b1111 _
b1111 e
b1111 f
b111110101010 (
b111110101010 :
b111110101010 Y
b111110101010 u
b10101010 #
b10101010 5
b10101010 a
b10101010 {
b101 *
b101 =
b101 [
b101 z
1,
#90
0,
#95
0g
1V
b0 Q
0A
0j
1X
1s
b1000000001000 8
b1000000001000 ]
1^
b1111 S
b100000 9
b100000 \
0$
1G
b11 E
1I
1M
b1111 )
b1111 ;
b1111 B
b1111 R
b11 K
1O
1,
#100
0,
#105
0L
0H
b10 J
1F
b1 D
1n
b1010 !
b1010 3
b1010 P
b1010 W
b1010 h
b1010 r
b1010 w
b1010 |
b1001 @
b1001 C
b1001 T
b1001 U
b10 i
1?
b11001 S
1g
0V
b11 Q
1A
1j
0X
0s
0^
b11011000010 8
b11011000010 ]
b1000 d
b10 b
1$
b1010 %
b1010 6
b1010 _
b1010 e
b1010 f
b1010001 9
b1010001 \
b1010 &
b1010 7
b1010 `
b1010 c
b101000101000 (
b101000101000 :
b101000101000 Y
b101000101000 u
b101000 #
b101000 5
b101000 a
b101000 {
b110 *
b110 =
b110 [
b110 z
1,
#110
0,
#115
0n
b1001 !
b1001 3
b1001 P
b1001 W
b1001 h
b1001 r
b1001 w
b1001 |
b0 i
0?
1N
0H
0g
1V
b0 Q
0A
0j
1X
b10 J
b1 D
1s
b1000000001000 8
b1000000001000 ]
1^
1'
b1001 @
b1001 C
b1001 T
b1001 U
b1001 S
b1010100 9
b1010100 \
0$
b10 k
1o
b1 E
0I
b1001 )
b1001 ;
b1001 B
b1001 R
b10 K
0M
1,
#116
b10101001 2
#120
0,
#125
0N
1F
b0 J
b1 D
0l
b1000 !
b1000 3
b1000 P
b1000 W
b1000 h
b1000 r
b1000 w
b1000 |
b1 @
b1 C
b1 T
b1 U
b0 i
0<
b1 S
1g
0V
b1 Q
1j
0X
0s
0^
b1001000010 8
b1001000010 ]
b1010 d
b100 b
1$
b1000 %
b1000 6
b1000 _
b1000 e
b1000 f
b10101 9
b10101 \
b10 &
b10 7
b10 `
b10 c
b100001001010 (
b100001001010 :
b100001001010 Y
b100001001010 u
b1001010 #
b1001010 5
b1001010 a
b1001010 {
b111 *
b111 =
b111 [
b111 z
1,
#130
0,
#135
1N
b10 J
b1001 !
b1001 3
b1001 P
b1001 W
b1001 h
b1001 r
b1001 w
b1001 |
b1001 @
b1001 C
b1001 T
b1001 U
b1001 S
0g
1V
b0 Q
0j
1X
1s
b1000000001000 8
b1000000001000 ]
1^
0'
b10000 9
b10000 \
0$
b0 k
0o
1,
#136
b11001010 2
#140
0,
#145
0F
1H
b10 D
b1010 @
b1010 C
b1010 T
b1010 U
b1010 !
b1010 3
b1010 P
b1010 W
b1010 h
b1010 r
b1010 w
b1010 |
b1010 S
1g
0V
b10 Q
1A
1j
0X
0s
0^
b11010000010 8
b11010000010 ]
b1100 d
b10 b
1$
b1010 %
b1010 6
b1010 _
b1010 e
b1010 f
b100001 9
b100001 \
b100 &
b100 7
b100 `
b100 c
b101000101100 (
b101000101100 :
b101000101100 Y
b101000101100 u
b101100 #
b101100 5
b101100 a
b101100 {
b1000 *
b1000 =
b1000 [
b1000 z
1,
#150
0,
#155
0g
1V
b0 Q
0A
0j
1X
1s
b1000000001000 8
b1000000001000 ]
1^
b1010 S
b100000 9
b100000 \
0$
0G
b1010 )
b1010 ;
b1010 B
b1010 R
b10 E
1I
1,
#160
0,
#165
1L
1n
1N
1H
1?
b11 J
b10 D
0l
b1100 !
b1100 3
b1100 P
b1100 W
b1100 h
b1100 r
b1100 w
b1100 |
b1110 @
b1110 C
b1110 T
b1110 U
b10 i
0<
b11110 S
1g
0V
b1 Q
1j
0X
0s
0^
b1001000010 8
b1001000010 ]
b1 d
b1010 b
1$
b1100 %
b1100 6
b1100 _
b1100 e
b1100 f
b10001 9
b10001 \
b10 &
b10 7
b10 `
b10 c
b110010100001 (
b110010100001 :
b110010100001 Y
b110010100001 u
b10100001 #
b10100001 5
b10100001 a
b10100001 {
b1001 *
b1001 =
b1001 [
b1001 z
1,
#170
0,
#175
0L
b10 J
0n
b1010 !
b1010 3
b1010 P
b1010 W
b1010 h
b1010 r
b1010 w
b1010 |
b1010 @
b1010 C
b1010 T
b1010 U
b0 i
0?
b1010 S
0g
1V
b0 Q
0j
1X
1s
b1000000001000 8
b1000000001000 ]
1^
1'
b10100 9
b10100 \
0$
b10 k
1o
1,
#176
b11101011 2
#180
0,
#185
1F
0L
1N
1H
b10 J
b11 D
0n
b1 !
b1 3
b1 P
b1 W
b1 h
b1 r
b1 w
b1 |
b1011 @
b1011 C
b1011 T
b1011 U
b0 i
0?
b1011 S
1g
0V
b11 Q
1A
1j
0X
0s
0^
b11011000010 8
b11011000010 ]
b1011 d
b1110 b
1$
b1 %
b1 6
b1 _
b1 e
b1 f
b1010101 9
b1010101 \
b1010 &
b1010 7
b1010 `
b1010 c
b111101011 (
b111101011 :
b111101011 Y
b111101011 u
b11101011 #
b11101011 5
b11101011 a
b11101011 {
b1010 *
b1010 =
b1010 [
b1010 z
1,
#190
0,
#195
b1011 !
b1011 3
b1011 P
b1011 W
b1011 h
b1011 r
b1011 w
b1011 |
0L
1F
1H
0g
1V
b0 Q
0A
0j
1X
b10 J
b11 D
1s
b1000000001000 8
b1000000001000 ]
1^
0'
b1011 @
b1011 C
b1011 T
b1011 U
b1011 S
b1010000 9
b1010000 \
0$
b0 k
0o
b1011 )
b1011 ;
b1011 B
b1011 R
b11 E
1G
1,
#196
b100001100 2
#200
0,
#205
1L
0N
0F
0H
b1 J
b0 D
b1011 !
b1011 3
b1011 P
b1011 W
b1011 h
b1011 r
b1011 w
b1011 |
b100 @
b100 C
b100 T
b100 U
b10100 S
1g
0V
b100 Q
1A
1j
0X
0s
0^
b11100000010 8
b11100000010 ]
b0 d
b1101 b
1$
b1011 %
b1011 6
b1011 _
b1011 e
b1011 f
b1110001 9
b1110001 \
b1110 &
b1110 7
b1110 `
b1110 c
b101111010000 (
b101111010000 :
b101111010000 Y
b101111010000 u
b11010000 #
b11010000 5
b11010000 a
b11010000 {
b1011 *
b1011 =
b1011 [
b1011 z
1,
#210
0,
#215
b100 !
b100 3
b100 P
b100 W
b100 h
b100 r
b100 w
b100 |
0N
0F
0H
0g
1V
b0 Q
0A
0j
1X
b1 J
b0 D
1s
b1000000001000 8
b1000000001000 ]
1^
b100 @
b100 C
b100 T
b100 U
b100 S
b1110000 9
b1110000 \
0$
0G
b0 E
0I
1M
b100 )
b100 ;
b100 B
b100 R
b1 K
0O
1,
#216
b101001110 2
#220
0,
#225
1}
0X
0s
0^
b1001 8
b1001 ]
b101 b
1$
b0 %
b0 6
b0 _
b0 e
b0 f
b1101001 9
b1101001 \
b1101 &
b1101 7
b1101 `
b1101 c
b1010000 (
b1010000 :
b1010000 Y
b1010000 u
b1010000 #
b1010000 5
b1010000 a
b1010000 {
b1100 *
b1100 =
b1100 [
b1100 z
1,
#230
0,
#235
0}
1X
1s
b1000000001000 8
b1000000001000 ]
1^
b1101000 9
b1101000 \
0$
b100 +
b100 >
b100 ~
1,
#236
b1110 -
b1110 4
b1110 p
b101101111 2
#240
0,
#245
1N
1H
b11 J
b10 D
b1110 @
b1110 C
b1110 T
b1110 U
b1110 !
b1110 3
b1110 P
b1110 W
b1110 h
b1110 r
b1110 w
b1110 |
b1110 S
0V
1q
b10 Q
1A
1j
0X
0s
0^
b11010000100 8
b11010000100 ]
b111 b
1$
b101001 9
b101001 \
b101 &
b101 7
b101 `
b101 c
b1110000 (
b1110000 :
b1110000 Y
b1110000 u
b1110000 #
b1110000 5
b1110000 a
b1110000 {
b1101 *
b1101 =
b1101 [
b1101 z
1,
#250
0,
#255
b1110 !
b1110 3
b1110 P
b1110 W
b1110 h
b1110 r
b1110 w
b1110 |
1V
0q
b0 Q
0A
0j
1X
1s
b1000000001000 8
b1000000001000 ]
1^
b1110 S
b101000 9
b101000 \
0$
b10 E
1I
b1110 )
b1110 ;
b1110 B
b1110 R
b11 K
1O
1,
#256
b110010000 2
#260
0,
#265
1x
1v
0s
0^
b1000000111000 8
b1000000111000 ]
b0 b
1$
b111001 9
b111001 \
b111 &
b111 7
b111 `
b111 c
b0 (
b0 :
b0 Y
b0 u
b0 #
b0 5
b0 a
b0 {
b1110 *
b1110 =
b1110 [
b1110 z
1,
#270
0,
#275
0x
0v
1s
b1000000001000 8
b1000000001000 ]
1^
b1111 d
b100 b
b111000 9
b111000 \
0$
b1001111 (
b1001111 :
b1001111 Y
b1001111 u
b1001111 #
b1001111 5
b1001111 a
b1001111 {
b1111 *
b1111 =
b1111 [
b1111 z
1,
#280
0,
#285
1F
b11 D
b1111 @
b1111 C
b1111 T
b1111 U
b1111 !
b1111 3
b1111 P
b1111 W
b1111 h
b1111 r
b1111 w
b1111 |
b1111 S
1g
0V
b10 Q
1A
1j
0X
0s
0^
b11010000010 8
b11010000010 ]
b1 d
b111 b
1$
b1111 %
b1111 6
b1111 _
b1111 e
b1111 f
b100001 9
b100001 \
b100 &
b100 7
b100 `
b100 c
b111101110001 (
b111101110001 :
b111101110001 Y
b111101110001 u
b1110001 #
b1110001 5
b1110001 a
b1110001 {
b10000 *
b10000 =
b10000 [
b10000 z
1,
#290
0,
#295
0g
1V
b0 Q
0A
0j
1X
1s
b1000000001000 8
b1000000001000 ]
1^
b1111 S
b100000 9
b100000 \
0$
b1111 )
b1111 ;
b1111 B
b1111 R
b11 E
1G
1,
#300
0,
#305
1x
1v
0s
0^
b1000000111000 8
b1000000111000 ]
b1 b
1$
b1 %
b1 6
b1 _
b1 e
b1 f
b111001 9
b111001 \
b111 &
b111 7
b111 `
b111 c
b100010001 (
b100010001 :
b100010001 Y
b100010001 u
b10001 #
b10001 5
b10001 a
b10001 {
b10001 *
b10001 =
b10001 [
b10001 z
1,
#310
0,
#315
0x
0v
1s
b1000000001000 8
b1000000001000 ]
1^
b1010 d
b100 b
b111000 9
b111000 \
0$
b101001010 (
b101001010 :
b101001010 Y
b101001010 u
b1001010 #
b1001010 5
b1001010 a
b1001010 {
b10010 *
b10010 =
b10010 [
b10010 z
1,
#320
0,
#325
0L
0F
b10 J
b10 D
b1010 @
b1010 C
b1010 T
b1010 U
b1010 !
b1010 3
b1010 P
b1010 W
b1010 h
b1010 r
b1010 w
b1010 |
b1010 S
1g
0V
b10 Q
1A
1j
0X
0s
0^
b11010000010 8
b11010000010 ]
b10 d
b111 b
1$
b1010 %
b1010 6
b1010 _
b1010 e
b1010 f
b100001 9
b100001 \
b100 &
b100 7
b100 `
b100 c
b101001110010 (
b101001110010 :
b101001110010 Y
b101001110010 u
b1110010 #
b1110010 5
b1110010 a
b1110010 {
b10011 *
b10011 =
b10011 [
b10011 z
1,
#330
0,
#335
0g
1V
b0 Q
0A
0j
1X
1s
b1000000001000 8
b1000000001000 ]
1^
b1010 S
b100000 9
b100000 \
0$
b10 E
0G
b1010 )
b1010 ;
b1010 B
b1010 R
b10 K
0M
1,
#340
0,
#345
1x
1v
0s
0^
b1000000111000 8
b1000000111000 ]
b10 b
1$
b10 %
b10 6
b10 _
b10 e
b10 f
b111001 9
b111001 \
b111 &
b111 7
b111 `
b111 c
b1000100010 (
b1000100010 :
b1000100010 Y
b1000100010 u
b100010 #
b100010 5
b100010 a
b100010 {
b10100 *
b10100 =
b10100 [
b10100 z
1,
#350
0,
#355
0x
0v
1s
b1000000001000 8
b1000000001000 ]
1^
b1 d
b100 b
b111000 9
b111000 \
0$
b1001000001 (
b1001000001 :
b1001000001 Y
b1001000001 u
b1000001 #
b1000001 5
b1000001 a
b1000001 {
b10101 *
b10101 =
b10101 [
b10101 z
1,
#360
0,
#365
0N
1F
0H
b0 J
b1 D
b1 @
b1 C
b1 T
b1 U
b1 !
b1 3
b1 P
b1 W
b1 h
b1 r
b1 w
b1 |
b1 S
1g
0V
b10 Q
1A
1j
0X
0s
0^
b11010000010 8
b11010000010 ]
b11 d
b111 b
1$
b1 %
b1 6
b1 _
b1 e
b1 f
b100001 9
b100001 \
b100 &
b100 7
b100 `
b100 c
b101110011 (
b101110011 :
b101110011 Y
b101110011 u
b1110011 #
b1110011 5
b1110011 a
b1110011 {
b10110 *
b10110 =
b10110 [
b10110 z
1,
#370
0,
#375
0g
1V
b0 Q
0A
0j
1X
1s
b1000000001000 8
b1000000001000 ]
1^
b1 S
b100000 9
b100000 \
0$
1G
b1 E
0I
b1 )
b1 ;
b1 B
b1 R
b0 K
0O
1,
#380
0,
#385
1x
1v
0s
0^
b1000000111000 8
b1000000111000 ]
b11 b
1$
b11 %
b11 6
b11 _
b11 e
b11 f
b111001 9
b111001 \
b111 &
b111 7
b111 `
b111 c
b1100110011 (
b1100110011 :
b1100110011 Y
b1100110011 u
b110011 #
b110011 5
b110011 a
b110011 {
b10111 *
b10111 =
b10111 [
b10111 z
1,
#390
0,
#395
0x
0v
1s
b1000000001000 8
b1000000001000 ]
1^
b0 d
b110 b
b111000 9
b111000 \
0$
b1101100000 (
b1101100000 :
b1101100000 Y
b1101100000 u
b1100000 #
b1100000 5
b1100000 a
b1100000 {
b11000 *
b11000 =
b11000 [
b11000 z
1,
#400
0,
#405
1L
1N
0F
1H
b11 J
b10 D
b1110 @
b1110 C
b1110 T
b1110 U
b1110 !
b1110 3
b1110 P
b1110 W
b1110 h
b1110 r
b1110 w
b1110 |
b1110 y
b1110 S
0V
1v
b10 Q
1A
1j
0s
0^
b1011010100000 8
b1011010100000 ]
b0 b
1$
b0 %
b0 6
b0 _
b0 e
b0 f
b110001 9
b110001 \
b110 &
b110 7
b110 `
b110 c
b0 (
b0 :
b0 Y
b0 u
b0 #
b0 5
b0 a
b0 {
b11001 *
b11001 =
b11001 [
b11001 z
1,
#410
0,
#415
b1110 !
b1110 3
b1110 P
b1110 W
b1110 h
b1110 r
b1110 w
b1110 |
1V
0v
b0 Q
0A
0j
1s
b1000000001000 8
b1000000001000 ]
1^
b1110 S
b1 d
b110 b
bx y
b110000 9
b110000 \
0$
0G
b10 E
1I
1M
b1110 )
b1110 ;
b1110 B
b1110 R
b11 K
1O
b1100001 (
b1100001 :
b1100001 Y
b1100001 u
b1100001 #
b1100001 5
b1100001 a
b1100001 {
b11010 *
b11010 =
b11010 [
b11010 z
1,
#420
0,
#425
1L
1N
1F
1H
b11 J
b11 D
b1111 @
b1111 C
b1111 T
b1111 U
b1111 !
b1111 3
b1111 P
b1111 W
b1111 h
b1111 r
b1111 w
b1111 |
b1111 y
b1111 S
0V
1v
b10 Q
1A
1j
0s
b1011010100000 8
b1011010100000 ]
0^
b1 b
b110001 9
b110001 \
1$
b1 %
b1 6
b1 _
b1 e
b1 f
b100010001 (
b100010001 :
b100010001 Y
b100010001 u
b10001 #
b10001 5
b10001 a
b10001 {
b11011 *
b11011 =
b11011 [
b11011 z
1,
#430
0,
#435
b1111 !
b1111 3
b1111 P
b1111 W
b1111 h
b1111 r
b1111 w
b1111 |
1V
0v
b0 Q
0A
0j
1s
b1000000001000 8
b1000000001000 ]
1^
b1111 S
b10 d
b110 b
bx y
b110000 9
b110000 \
0$
b1111 )
b1111 ;
b1111 B
b1111 R
b11 E
1G
b101100010 (
b101100010 :
b101100010 Y
b101100010 u
b1100010 #
b1100010 5
b1100010 a
b1100010 {
b11100 *
b11100 =
b11100 [
b11100 z
1,
#440
0,
#445
0L
1N
0F
1H
b10 J
b10 D
b1010 @
b1010 C
b1010 T
b1010 U
b1010 !
b1010 3
b1010 P
b1010 W
b1010 h
b1010 r
b1010 w
b1010 |
b1010 y
b1010 S
0V
1v
b10 Q
1A
1j
0s
b1011010100000 8
b1011010100000 ]
0^
b10 b
b110001 9
b110001 \
1$
b10 %
b10 6
b10 _
b10 e
b10 f
b1000100010 (
b1000100010 :
b1000100010 Y
b1000100010 u
b100010 #
b100010 5
b100010 a
b100010 {
b11101 *
b11101 =
b11101 [
b11101 z
1,
#450
0,
#455
b1010 !
b1010 3
b1010 P
b1010 W
b1010 h
b1010 r
b1010 w
b1010 |
1V
0v
b0 Q
0A
0j
1s
b1000000001000 8
b1000000001000 ]
1^
b1010 S
b11 d
b110 b
bx y
b110000 9
b110000 \
0$
b10 E
0G
b1010 )
b1010 ;
b1010 B
b1010 R
b10 K
0M
b1001100011 (
b1001100011 :
b1001100011 Y
b1001100011 u
b1100011 #
b1100011 5
b1100011 a
b1100011 {
b11110 *
b11110 =
b11110 [
b11110 z
1,
#460
0,
#465
0L
0N
1F
0H
b0 J
b1 D
b1 @
b1 C
b1 T
b1 U
b1 !
b1 3
b1 P
b1 W
b1 h
b1 r
b1 w
b1 |
b1 y
b1 S
0V
1v
b10 Q
1A
1j
0s
b1011010100000 8
b1011010100000 ]
0^
b11 b
b110001 9
b110001 \
1$
b11 %
b11 6
b11 _
b11 e
b11 f
b1100110011 (
b1100110011 :
b1100110011 Y
b1100110011 u
b110011 #
b110011 5
b110011 a
b110011 {
b11111 *
b11111 =
b11111 [
b11111 z
1,
#470
0,
#475
b1 !
b1 3
b1 P
b1 W
b1 h
b1 r
b1 w
b1 |
1V
0v
b0 Q
0A
0j
1s
b1000000001000 8
b1000000001000 ]
1^
b1 S
b1010 d
b100 b
bx y
b110000 9
b110000 \
0$
1G
b1 E
0I
b1 )
b1 ;
b1 B
b1 R
b0 K
0O
b1101001010 (
b1101001010 :
b1101001010 Y
b1101001010 u
b1001010 #
b1001010 5
b1001010 a
b1001010 {
b100000 *
b100000 =
b100000 [
b100000 z
1,
#476
b111100000 2
#480
0,
#485
1N
0F
1H
b10 J
b10 D
b1010 @
b1010 C
b1010 T
b1010 U
b1010 !
b1010 3
b1010 P
b1010 W
b1010 h
b1010 r
b1010 w
b1010 |
b1010 S
1g
0V
b10 Q
1A
1j
0X
0s
0^
b11010000010 8
b11010000010 ]
b10 d
b1111 b
1$
b1010 %
b1010 6
b1010 _
b1010 e
b1010 f
b100001 9
b100001 \
b100 &
b100 7
b100 `
b100 c
b101011110010 (
b101011110010 :
b101011110010 Y
b101011110010 u
b11110010 #
b11110010 5
b11110010 a
b11110010 {
b100001 *
b100001 =
b100001 [
b100001 z
1,
#490
0,
#495
0g
1V
b0 Q
0A
0j
1X
1s
b1000000001000 8
b1000000001000 ]
1^
b1010 S
b100000 9
b100000 \
0$
0G
b10 E
1I
b1010 )
b1010 ;
b1010 B
b1010 R
b10 K
1O
1,
#500
0,
#505
1L
0N
1F
0H
b1 J
b1 D
b1010 !
b1010 3
b1010 P
b1010 W
b1010 h
b1010 r
b1010 w
b1010 |
b1010 y
b101 @
b101 C
b101 T
b101 U
b10101 S
0V
1v
b100 Q
1A
1j
0s
0^
b1011100100000 8
b1011100100000 ]
b10 b
1$
b10 %
b10 6
b10 _
b10 e
b10 f
b1111001 9
b1111001 \
b1111 &
b1111 7
b1111 `
b1111 c
b1000100010 (
b1000100010 :
b1000100010 Y
b1000100010 u
b100010 #
b100010 5
b100010 a
b100010 {
b100010 *
b100010 =
b100010 [
b100010 z
1,
#510
0,
